Growth rate analysis
…
## [1] "C:/Users/pktho/OneDrive/Growth rates paper/growth_rate_project/Anna Lena_growthdata.csv"
## [2] "C:/Users/pktho/OneDrive/Growth rates paper/growth_rate_project/patrick_growthdata.csv"

combine files based on that list

df <- lapply(growth_files, function(i){
  x=read_csv(i, na = "NA", col_types = cols(colonial = col_character()))
  x$filename = i
  x
})

df[[1]] # to look at a certain data file for example

## # A tibble: 27,212 x 22
##    researcher_ID unique_ID time_days time_hours RFU_platereader `RFU_excitation~
##    <chr>         <chr>         <dbl> <lgl>                <dbl>            <dbl>
##  1 AH            2020_196          0 NA                      11             396.
##  2 AH            2020_196          2 NA                       9             396.
##  3 AH            2020_196          4 NA                      11             396.
##  4 AH            2020_196          6 NA                      22             396.
##  5 AH            2020_196          8 NA                      45             396.
##  6 AH            2020_196         10 NA                      74             396.
##  7 AH            2020_196         12 NA                      85             396.
##  8 AH            2020_196         14 NA                      63             396.
##  9 AH            2020_196         16 NA                      80             396.
## 10 AH            2020_196         18 NA                      64             396.
## # ... with 27,202 more rows, and 16 more variables: RFU_handheld <lgl>,
## #   OD <dbl>, biomass_C <lgl>, chla_extracted <lgl>, OD_wavelength <dbl>,
## #   cell_density <lgl>, cell_density_technique <lgl>, system <chr>,
## #   taxa_broad <chr>, species_name <chr>, species number <dbl>,
## #   time_acclimation <lgl>, time_frequency_sampling <lgl>, L_D_cycle <dbl>,
## #   colonial <chr>, filename <chr>
…
